{
  "Version": "0.3",
  "TestDoubleForConcrete": {
    "ClassSuffix": "Builder",
    "NameInMenu": "Builder",
    "Folder": "Builders",
    "AssemblySpecificTargetProjectSuffix": "TestDoubles",
    "TargetProjectNameForAssembliesWithoutSpecificTargetProject": null,
    "FileTemplates": [
      {
        "NameTemplate": "{{className}}.cs",
        "ContentTemplateFile": "defaulttemplates\\builder.tpl",
        "Recreate": true
      },
      {
        "NameTemplate": "{{className}}.Extensions.cs",
        "ContentTemplateFile": "defaulttemplates\\builder.extensions.tpl",
        "Recreate": false
      }
    ],
    "ToolingNamespaces": []
  },
  "TestDoubleForAbstract": {
    "ClassSuffix": "Mock",
    "NameInMenu": "Mock",
    "Folder": "Mocks",
    "AssemblySpecificTargetProjectSuffix": "TestDoubles",
    "TargetProjectNameForAssembliesWithoutSpecificTargetProject": null,
    "FileTemplates": [
      {
        "NameTemplate": "{{className}}.cs",
        "ContentTemplateFile": "defaulttemplates\\mock.tpl",
        "Recreate": true
      },
      {
        "NameTemplate": "{{className}}.Extensions.cs",
        "ContentTemplateFile": "defaulttemplates\\mock.extensions.tpl",
        "Recreate": false
      }
    ],
    "ToolingNamespaces": [
      "Moq",
      "System",
      "System.Collections.Generic"
    ]
  },
  "Test": {
    "ClassSuffix": "Tests",
    "NameInMenu": "Test",
    "FieldSuffixTemplateForMultiMethod": "Of{{methodName}}",
    "Folder": null,
    "AssemblySpecificTargetProjectSuffix": "Tests",
    "TargetProjectNameForAssembliesWithoutSpecificTargetProject": null,
    "OutputSettings": {
      "NUnit": {
        "FileTemplates": [
          {
            "NameTemplate": "{{className}}.cs",
            "ContentTemplateFile": "defaulttemplates\\nunit.test.tpl",
            "Recreate": false
          }
        ],
        "ToolingNamespaces": [
          "System",
          "Moq",
          "NUnit.Framework",
          "FluentAssertions"
        ]
      },
      "MsTest": {
        "FileTemplates": [
          {
            "NameTemplate": "{{className}}.cs",
            "ContentTemplateFile": "defaulttemplates\\mstest.test.tpl",
            "Recreate": false
          }
        ],
        "ToolingNamespaces": [
          "System",
          "Moq",
          "Microsoft.VisualStudio.TestTools.UnitTesting",
          "FluentAssertions"
        ]
      },
      "xUnit": {
        "FileTemplates": [
          {
            "NameTemplate": "{{className}}.cs",
            "ContentTemplateFile": "defaulttemplates\\xunit.test.tpl",
            "Recreate": false
          }
        ],
        "ToolingNamespaces": [
          "System",
          "Moq",
          "Xunit",
          "FluentAssertions"
        ]
      }
    },
    "DefaultTestFramework": "NUnit"
  },
  "TestExternalCases": {
    "NameInMenu": "Test Cases In External File",
    "SourceClassNameTemplate": "{{testName}}Cases",
    "SourceFilePathTemplate": "TestCases\\{{testClassName}}",
    "OutputSettings": {
      "NUnit": {
        "ToolingNamespaces": [
          "NUnit.Framework",
          "System.Collections"
        ],
        "AttributeTemplateFile": "DefaultTemplates\\nunit.test-cases-external.attribute.tpl",
        "SourceClassTemplateFile": "DefaultTemplates\\nunit.test-cases-external.source-class.tpl",
        "TestAttributeNames": [
          "Test",
          "TestCase"
        ]
      },
      "xUnit": {
        "ToolingNamespaces": [
          "System.Collections"
        ],
        "AttributeTemplateFile": "DefaultTemplates\\xunit.test-cases-external.attribute.tpl",
        "SourceClassTemplateFile": "DefaultTemplates\\xunit.test-cases-external.source-class.tpl",
        "TestAttributeNames": [
          "Fact",
          "Theory",
          "InlineData"
        ]
      },
      "MsTest": {
        "ToolingNamespaces": [
          "System.Collections"
        ],
        "AttributeTemplateFile": "DefaultTemplates\\mstest.test-cases-external.attribute.tpl",
        "SourceClassTemplateFile": "DefaultTemplates\\mstest.test-cases-external.source-class.tpl",
        "TestAttributeNames": [
          "TestMethod",
          "DataTestMethod",
          "DataRow"
        ]
      }
    },
    "DefaultTestFramework": "NUnit"
  },
  "TestCases": {
    "NameInMenu": "Test Cases",
    "OutputSettings": {
      "NUnit": {
        "AttributeTemplateFile": "DefaultTemplates\\nunit.test-cases.attribute.tpl",
        "SourceMethodTemplateFile": "DefaultTemplates\\nunit.test-cases.source-method.tpl",
        "TestAttributeNames": [
          "Test",
          "TestCase"
        ]
      },
      "xUnit": {
        "AttributeTemplateFile": "DefaultTemplates\\xunit.test-cases.attribute.tpl",
        "SourceMethodTemplateFile": "DefaultTemplates\\xunit.test-cases.source-method.tpl",
        "TestAttributeNames": [
          "Fact",
          "Theory",
          "InlineData"
        ]
      },
      "MsTest": {
        "AttributeTemplateFile": "DefaultTemplates\\mstest.test-cases.attribute.tpl",
        "SourceMethodTemplateFile": "DefaultTemplates\\mstest.test-cases.source-method.tpl",
        "TestAttributeNames": [
          "TestMethod",
          "DataTestMethod",
          "DataRow"
        ]
      }
    },
    "DefaultTestFramework": "NUnit"
  }
}